Type,int64
Name,object
Age,float64
Breed1,int64
Breed2,int64
Gender,int64
Color1,int64
Color2,int64
Color3,int64
MaturitySize,int64
FurLength,int64
Vaccinated,int64
Dewormed,int64
Sterilized,int64
Health,int64
Quantity,float64
Fee,float64
State,int64
RescuerID,object
VideoAmt,float64
Description,object
PetID,object
PhotoAmt,float64
AdoptionSpeed,float64
sentiment_magnitude,float64
sentiment_score,float64
sentiment_sentences_magnitude,float64
sentiment_sentences_score,float64
sentiment_entities,object
vertex_x_sum,float64
vertex_x_mean,float64
vertex_y_sum,float64
vertex_y_mean,float64
bounding_confidence_sum,float64
bounding_confidence_mean,float64
bounding_importance_frac_sum,float64
bounding_importance_frac_mean,float64
dominant_blue_sum,float64
dominant_blue_mean,float64
dominant_green_sum,float64
dominant_green_mean,float64
dominant_red_sum,float64
dominant_red_mean,float64
dominant_pixel_frac_sum,float64
dominant_pixel_frac_mean,float64
dominant_score_sum,float64
dominant_score_mean,float64
top_annotation_score_sum,float64
top_annotation_score_mean,float64
top_descriptions_unite,object
Mixed,float64
IsGroup,float64
NameLen,float64
DescrLen,float64
RescuerID_count,float64
tsvd_Description_0,float64
tsvd_Description_1,float64
tsvd_Description_2,float64
tsvd_Description_3,float64
tsvd_Description_4,float64
tsvd_Description_5,float64
tsvd_Description_6,float64
tsvd_Description_7,float64
tsvd_Description_8,float64
tsvd_Description_9,float64
tsvd_Description_10,float64
tsvd_Description_11,float64
tsvd_Description_12,float64
tsvd_Description_13,float64
tsvd_Description_14,float64
mnf_Description_0,float64
mnf_Description_1,float64
mnf_Description_2,float64
mnf_Description_3,float64
mnf_Description_4,float64
mnf_Description_5,float64
mnf_Description_6,float64
mnf_Description_7,float64
mnf_Description_8,float64
mnf_Description_9,float64
mnf_Description_10,float64
mnf_Description_11,float64
mnf_Description_12,float64
mnf_Description_13,float64
mnf_Description_14,float64
mnf_Description_15,float64
mnf_Description_16,float64
mnf_Description_17,float64
mnf_Description_18,float64
mnf_Description_19,float64
tsvd_sentiment_entities_0,float64
tsvd_sentiment_entities_1,float64
tsvd_sentiment_entities_2,float64
tsvd_sentiment_entities_3,float64
tsvd_sentiment_entities_4,float64
tsvd_sentiment_entities_5,float64
tsvd_sentiment_entities_6,float64
tsvd_sentiment_entities_7,float64
tsvd_sentiment_entities_8,float64
tsvd_sentiment_entities_9,float64
tsvd_sentiment_entities_10,float64
tsvd_sentiment_entities_11,float64
tsvd_sentiment_entities_12,float64
tsvd_sentiment_entities_13,float64
tsvd_sentiment_entities_14,float64
mnf_sentiment_entities_0,float64
mnf_sentiment_entities_1,float64
mnf_sentiment_entities_2,float64
mnf_sentiment_entities_3,float64
mnf_sentiment_entities_4,float64
mnf_sentiment_entities_5,float64
mnf_sentiment_entities_6,float64
mnf_sentiment_entities_7,float64
mnf_sentiment_entities_8,float64
mnf_sentiment_entities_9,float64
mnf_sentiment_entities_10,float64
mnf_sentiment_entities_11,float64
mnf_sentiment_entities_12,float64
mnf_sentiment_entities_13,float64
mnf_sentiment_entities_14,float64
mnf_sentiment_entities_15,float64
mnf_sentiment_entities_16,float64
mnf_sentiment_entities_17,float64
mnf_sentiment_entities_18,float64
mnf_sentiment_entities_19,float64
tsvd_top_descriptions_unite_0,float64
tsvd_top_descriptions_unite_1,float64
tsvd_top_descriptions_unite_2,float64
tsvd_top_descriptions_unite_3,float64
tsvd_top_descriptions_unite_4,float64
tsvd_top_descriptions_unite_5,float64
tsvd_top_descriptions_unite_6,float64
tsvd_top_descriptions_unite_7,float64
tsvd_top_descriptions_unite_8,float64
tsvd_top_descriptions_unite_9,float64
tsvd_top_descriptions_unite_10,float64
tsvd_top_descriptions_unite_11,float64
tsvd_top_descriptions_unite_12,float64
tsvd_top_descriptions_unite_13,float64
tsvd_top_descriptions_unite_14,float64
mnf_top_descriptions_unite_0,float64
mnf_top_descriptions_unite_1,float64
mnf_top_descriptions_unite_2,float64
mnf_top_descriptions_unite_3,float64
mnf_top_descriptions_unite_4,float64
mnf_top_descriptions_unite_5,float64
mnf_top_descriptions_unite_6,float64
mnf_top_descriptions_unite_7,float64
mnf_top_descriptions_unite_8,float64
mnf_top_descriptions_unite_9,float64
mnf_top_descriptions_unite_10,float64
mnf_top_descriptions_unite_11,float64
mnf_top_descriptions_unite_12,float64
mnf_top_descriptions_unite_13,float64
mnf_top_descriptions_unite_14,float64
mnf_top_descriptions_unite_15,float64
mnf_top_descriptions_unite_16,float64
mnf_top_descriptions_unite_17,float64
mnf_top_descriptions_unite_18,float64
mnf_top_descriptions_unite_19,float64
pca_0,float64
pca_1,float64
pca_2,float64
pca_3,float64
pca_4,float64
pca_5,float64
pca_6,float64
pca_7,float64
pca_8,float64
pca_9,float64
